{
  "project_info": {
    "project_number": "810970057521",
    "firebase_url": "https://royal-care-b3e22.firebaseio.com",
    "project_id": "royal-care-b3e22",
    "storage_bucket": "royal-care-b3e22.appspot.com"
  },
  "client": [
    {
      "client_info": {
        "mobilesdk_app_id": "1:810970057521:android:d9a251777d97bd33",
        "android_client_info": {
          "package_name": "com.tradr.royalcare"
        }
      },
      "oauth_client": [
        {
          "client_id": "810970057521-1t4gbr9bqjhu918f5s7krst7ciijqjlu.apps.googleusercontent.com",
          "client_type": 3
        }
      ],
      "api_key": [
        {
          "current_key": "AIzaSyDpXpGOj-kNTpyepMoVQguNr3OOte6wuoY"
        }
      ],
      "services": {
        "analytics_service": {
          "status": 1
        },
        "appinvite_service": {
          "status": 1,
          "other_platform_oauth_client": []
        },
        "ads_service": {
          "status": 2
        }
      }
    }
  ],
  "configuration_version": "1"
}